<?xml version="1.0" encoding="UTF-8"?>
<session version="1.0">
<refactoring comment="Delete resource &apos;dinda&apos;sproject&apos;" deleteContents="false" description="Delete resource &apos;dinda&apos;sproject&apos;" element1="/dinda&apos;sproject" flags="7" id="org.eclipse.ltk.core.refactoring.delete.resources" resources="1" stamp="1623760852698"/>
</session>